{
  "users": [
    {
      "lastname": "Empty",
      "name": "Adam",
      "id": 1
    },
    {
      "lastname": "value",
      "name": "value",
      "id": 2
    },
    {
      "lastname": "value",
      "name": "value",
      "id": 3
    },
    {
      "lastname": "value",
      "name": "value",
      "id": 4
    },
    {
      "name": "",
      "lastname": "",
      "id": 5
    },
    {
      "name": "",
      "lastname": "",
      "id": 6
    },
    {
      "name": "",
      "lastname": "",
      "id": 7
    },
    {
      "name": "",
      "lastname": "",
      "id": 8
    },
    {
      "name": "",
      "lastname": "",
      "id": 9
    },
    {
      "name": "",
      "lastname": "",
      "id": 10
    },
    {
      "name": "",
      "lastname": "",
      "id": 11
    },
    {
      "name": "",
      "lastname": "",
      "id": 12
    },
    {
      "name": "",
      "lastname": "",
      "id": 13
    },
    {
      "name": "",
      "lastname": "",
      "id": 14
    },
    {
      "name": "",
      "lastname": "",
      "id": 15
    },
    {
      "name": "",
      "lastname": "",
      "id": 16
    },
    {
      "name": "",
      "lastname": "",
      "id": 17
    },
    {
      "name": "",
      "lastname": "",
      "id": 18
    },
    {
      "name": "Alice",
      "lastname": "FetchAPI",
      "id": 19
    },
    {
      "name": "Alice",
      "lastname": "FetchAPI",
      "id": 20
    },
    {
      "name": "Alice",
      "lastname": "FetchAPI",
      "id": 21
    },
    {
      "name": "Alice",
      "lastname": "FetchAPI",
      "id": 22
    },
    {
      "name": "Alice",
      "lastname": "FetchAPI",
      "id": 23
    },
    {
      "name": "Alice",
      "lastname": "FetchAPI",
      "id": 24
    },
    {
      "name": "Alice",
      "lastname": "FetchAPI",
      "id": 25
    },
    {
      "name": "Alice",
      "lastname": "FetchAPI",
      "id": 26
    },
    {
      "id": 27
    },
    {
      "id": 28
    },
    {
      "id": 29
    },
    {
      "id": 30
    },
    {
      "id": 31
    },
    {
      "id": 32
    },
    {
      "id": 33
    },
    {
      "id": 34
    },
    {
      "id": 35
    },
    {
      "id": 36
    },
    {
      "id": 37
    },
    {
      "id": 38
    },
    {
      "id": 39
    },
    {
      "id": 40
    },
    {
      "id": 41
    },
    {
      "id": 42
    },
    {
      "id": 43
    },
    {
      "name": "Alice",
      "lastname": "XHR",
      "id": 44
    },
    {
      "name": "Alice",
      "lastname": "XHR",
      "id": 45
    },
    {
      "name": "Malice",
      "lastname": "XHR",
      "id": 46
    },
    {
      "name": "Malice",
      "lastname": "XHR",
      "id": 47
    },
    {
      "name": "Malice",
      "lastname": "XHR",
      "id": 48
    },
    {
      "name": "Malice",
      "lastname": "XHR",
      "id": 49
    },
    {
      "name": "Malice",
      "lastname": "XHR",
      "id": 50
    },
    {
      "name": "Malice",
      "lastname": "XHR",
      "id": 51
    },
    {
      "name": "Malice",
      "lastname": "XHR",
      "id": 52
    },
    {
      "name": "Malice",
      "lastname": "XHR",
      "id": 53
    },
    {
      "name": "Malice",
      "lastname": "XHR",
      "id": 54
    },
    {
      "name": "Malice",
      "lastname": "XHR",
      "id": 55
    },
    {
      "name": "Malice",
      "lastname": "XHR",
      "id": 56
    },
    {
      "name": "Malice",
      "lastname": "XHR",
      "id": 57
    },
    {
      "name": "Malice",
      "lastname": "XHR",
      "id": 58
    },
    {
      "name": "Malice",
      "lastname": "XHR",
      "id": 59
    },
    {
      "name": "Malice",
      "lastname": "XHR",
      "id": 60
    },
    {
      "name": "Malice",
      "lastname": "XHR",
      "id": 61
    },
    {
      "name": "Malice",
      "lastname": "XHR",
      "id": 62
    },
    {
      "name": "Malice",
      "lastname": "XHR",
      "id": 63
    },
    {
      "name": "Malice",
      "lastname": "XHR",
      "id": 64
    },
    {
      "name": "Malice",
      "lastname": "XHR",
      "id": 65
    },
    {
      "name": "Malice",
      "lastname": "XHR",
      "id": 66
    },
    {
      "name": "Malice",
      "lastname": "XHR",
      "id": 67
    },
    {
      "name": "Malice",
      "lastname": "XHR",
      "id": 68
    },
    {
      "name": "Malice",
      "lastname": "XHR",
      "id": 69
    },
    {
      "name": "Malice",
      "lastname": "XHR",
      "id": 70
    },
    {
      "name": "Malice",
      "lastname": "XHR",
      "id": 71
    },
    {
      "name": "Malice",
      "lastname": "XHR",
      "id": 72
    },
    {
      "name": "Malice",
      "lastname": "XHR",
      "id": 73
    },
    {
      "name": "Malice",
      "lastname": "XHR",
      "id": 74
    },
    {
      "name": "Malice",
      "lastname": "XHR",
      "id": 75
    },
    {
      "name": "Malice",
      "lastname": "XHR",
      "id": 76
    },
    {
      "name": "Malice",
      "lastname": "XHR",
      "id": 77
    },
    {
      "name": "Malice",
      "lastname": "XHR",
      "id": 78
    },
    {
      "name": "Malice",
      "lastname": "XHR",
      "id": 79
    },
    {
      "name": "Malice",
      "lastname": "XHR",
      "id": 80
    },
    {
      "name": "Malice",
      "lastname": "XHR",
      "id": 81
    },
    {
      "name": "Malice",
      "lastname": "XHR",
      "id": 82
    },
    {
      "name": "Malice",
      "lastname": "XHR",
      "id": 83
    },
    {
      "name": "Malice",
      "lastname": "XHR",
      "id": 84
    },
    {
      "name": "Malice",
      "lastname": "XHR",
      "id": 85
    },
    {
      "name": "Malice",
      "lastname": "XHR",
      "id": 86
    },
    {
      "name": "Malice",
      "lastname": "XHR",
      "id": 87
    },
    {
      "name": "Malice",
      "lastname": "XHR",
      "id": 88
    },
    {
      "name": "Malice",
      "lastname": "XHR",
      "id": 89
    },
    {
      "name": "Malice",
      "lastname": "XHR",
      "id": 90
    },
    {
      "name": "Malice",
      "lastname": "XHR",
      "id": 91
    },
    {
      "name": "Malice",
      "lastname": "XHR",
      "id": 92
    },
    {
      "name": "Malice",
      "lastname": "XHR",
      "id": 93
    },
    {
      "name": "Malice",
      "lastname": "XHR",
      "id": 94
    },
    {
      "name": "Malice",
      "lastname": "XHR",
      "id": 95
    },
    {
      "name": "Malice",
      "lastname": "XHR",
      "id": 96
    },
    {
      "name": "Malice",
      "lastname": "XHR",
      "id": 97
    },
    {
      "name": "Malice",
      "lastname": "XHR",
      "id": 98
    }
  ]
}